{
	"layout_name": "default",
	"layout_title": "Default Layout",
	"content_areas": {
		"side_content": {
			"name": "Side Content",
			"widgets": [
				{
					"name": "*",
					"namespace": "\\Widgets"
				},
				{
					"name": "*",
					"namespace": "\\Theme\\Classic\\Widgets"
				}
			]
		}
	}
}